Análise Hidrológica com R: uma introdução para iniciantes: Análise exploratória dos dados: Parte 2
…
## Criação de coluna com os anos
Qd <- Qd %>% 
  mutate(Ano = year(Data))

## Remoção de anos que contenham dias com falha
Anos_falha <- unique(Qd$Ano[is.na(Qd$Vazao)])
Anos_falha

[1] 1978 2008 2009 2019

Qd <- Qd %>% 
          filter(!(Ano %in% Anos_falha))
tibble(Qd)

# A tibble: 14,579 × 4
   Cod_estacao Data       Vazao   Ano
   <fct>       <date>     <dbl> <dbl>
 1 60435000    1979-01-01  2.4   1979
 2 60435000    1979-01-02  2.33  1979
 3 60435000    1979-01-03  2.20  1979
 4 60435000    1979-01-04  2.14  1979
 5 60435000    1979-01-05  2.47  1979
 6 60435000    1979-01-06  2.92  1979
 7 60435000    1979-01-07  2.74  1979
 8 60435000    1979-01-08  4.17  1979
 9 60435000    1979-01-09 10.9   1979
10 60435000    1979-01-10 15.8   1979
# … with 14,569 more rows
…
Utilizamos o código abaixo, escrito em R-base, para
realizar esse cálculo. AO final, apresentamos as primeiras 10 linhas do
dataframe denominado Qperm_all, com os valores
da probabilidade de excedência localizados na última coluna.

# Permanência calculada com todos os anos juntos 
# Uso do R-base apenas
Qperm_all <- Qd[order(Qd$Vazao, decreasing = TRUE), ]
Qperm_all$index <- 1:nrow(Qperm_all)
Qperm_all$weibull <- Qperm_all$index/(nrow(Qperm_all)+1) 
tibble(Qperm_all)

# A tibble: 14,579 × 6
   Cod_estacao Data       Vazao   Ano index   weibull
   <fct>       <date>     <dbl> <dbl> <int>     <dbl>
 1 60435000    2004-02-23  37.5  2004     1 0.0000686
 2 60435000    1980-02-19  28.9  1980     2 0.000137 
 3 60435000    1983-02-10  25.3  1983     3 0.000206 
 4 60435000    1983-02-11  24.6  1983     4 0.000274 
 5 60435000    2004-02-24  19.3  2004     5 0.000343 
 6 60435000    2004-02-25  19.3  2004     6 0.000412 
 7 60435000    1994-03-07  19.3  1994     7 0.000480 
 8 60435000    1994-03-06  18.9  1994     8 0.000549 
 9 60435000    2004-01-28  18.8  2004     9 0.000617 
10 60435000    2016-01-20  17.8  2016    10 0.000686 
# … with 14,569 more rows
Note que as vazões estão ordenadas de forma decrescentte, com o maior
valor do histórico tendo ocorrido em 2004-02-23.

Poderíamos ter obtido o mesmo resultado utilizando o pacote
tidyverse, como pode ser observado abaixo. É sempre bom
saber realizar algo de manieras diferentes. Utilize a que você achar
mais fácil.

Qperm_allt <- Qd %>% 
  arrange(desc(Vazao)) %>%
  mutate(index = rank(-Vazao)) %>%
  mutate(weibull = index/(n()+1))
tibble(Qperm_allt)

# A tibble: 14,579 × 6
   Cod_estacao Data       Vazao   Ano index   weibull
   <fct>       <date>     <dbl> <dbl> <dbl>     <dbl>
 1 60435000    2004-02-23  37.5  2004   1   0.0000686
 2 60435000    1980-02-19  28.9  1980   2   0.000137 
 3 60435000    1983-02-10  25.3  1983   3   0.000206 
 4 60435000    1983-02-11  24.6  1983   4   0.000274 
 5 60435000    2004-02-24  19.3  2004   5.5 0.000377 
 6 60435000    2004-02-25  19.3  2004   5.5 0.000377 
 7 60435000    1994-03-07  19.3  1994   7   0.000480 
 8 60435000    1994-03-06  18.9  1994   8   0.000549 
 9 60435000    2004-01-28  18.8  2004   9   0.000617 
10 60435000    2016-01-20  17.8  2016  10   0.000686 
# … with 14,569 more rows
…
# Permanência calculada para cada ano
# Uso do tidyverse e pipe
Qperm_ano <- Qd %>% 
  arrange(Ano, desc(Vazao)) %>%
  group_by(Ano) %>%
  mutate(index = rank(-Vazao)) %>%
  mutate(weibull = index/(n()+1))
tibble(Qperm_ano)

# A tibble: 14,579 × 6
   Cod_estacao Data       Vazao   Ano index weibull
   <fct>       <date>     <dbl> <dbl> <dbl>   <dbl>
 1 60435000    1979-01-20 16.1   1979     1 0.00273
 2 60435000    1979-01-10 15.8   1979     2 0.00546
 3 60435000    1979-01-19 15.2   1979     3 0.00820
 4 60435000    1979-02-07 12.5   1979     4 0.0109 
 5 60435000    1979-02-22 11.6   1979     5 0.0137 
 6 60435000    1979-01-12 11.3   1979     6 0.0164 
 7 60435000    1979-01-09 10.9   1979     7 0.0191 
 8 60435000    1979-01-21 10.5   1979     8 0.0219 
 9 60435000    1979-01-11  9.61  1979     9 0.0246 
10 60435000    1979-01-13  9.19  1979    10 0.0273 
# … with 14,569 more rows
…
Para tornar as curvas de permanência de 1983 e 2017 mais proeminentes
na Figura acima, basta colorí-las.

Para isso, vamos construir um novo dataframe apenas ocm
esses anos,

anos_extremos <- Qd %>% 
  filter(Ano %in% c(ano_seco, ano_umido)) %>% 
  arrange(Ano, desc(Vazao)) %>%
  group_by(Ano) %>% 
  mutate(index = rank(-Vazao)) %>%
  mutate(weibull = index/(n()+1))
tibble(anos_extremos)

# A tibble: 730 × 6
   Cod_estacao Data       Vazao   Ano index weibull
   <fct>       <date>     <dbl> <dbl> <dbl>   <dbl>
 1 60435000    1983-02-10 25.3   1983     1 0.00273
 2 60435000    1983-02-11 24.6   1983     2 0.00546
 3 60435000    1983-02-09 15.6   1983     3 0.00820
 4 60435000    1983-01-23 14.7   1983     4 0.0109 
 5 60435000    1983-02-12 14.6   1983     5 0.0137 
 6 60435000    1983-03-26 14.3   1983     6 0.0164 
 7 60435000    1983-03-22 12.1   1983     7 0.0191 
 8 60435000    1983-03-27 10.9   1983     8 0.0219 
 9 60435000    1983-01-02 10.4   1983     9 0.0246 
10 60435000    1983-02-08  9.95  1983    10 0.0273 
# … with 720 more rows
…
Veja que a função fun_max_ano assume que o ano
hidrológico começa no mês de agosto, o que parece razoável para a
estação que estamos utilizando. Se você achar que o ano hidrológico deve
começar em outro mês, defina o mês quando chamar a função.

Chamamos a referida função e criamos o dataframe
denominado Q_max, cujas primiras linhas podem ser
observadas na sequência.

Q_max <- fun_max_ano(Qd)
tibble(Q_max)

# A tibble: 43 × 4
   Cod_estacao ano_hidro maxima data_maxima
   <fct>           <dbl>  <dbl> <date>     
 1 60435000         1979  16.1  1979-01-20 
 2 60435000         1980  28.9  1980-02-19 
 3 60435000         1981  11.1  1981-03-20 
 4 60435000         1982  12.8  1982-01-20 
 5 60435000         1983  25.3  1983-02-10 
 6 60435000         1984   9.25 1983-10-22 
 7 60435000         1985   8.91 1985-01-27 
 8 60435000         1986  10.4  1986-01-29 
 9 60435000         1987  12.4  1986-12-30 
10 60435000         1988  17.1  1988-03-13 
# … with 33 more rows
…
# Testando o código

#Vazao <- c(12,15,20,16,10,9,8,7,12,25,43,34,22,21,20,19,18,17,25,34,55,43,14,13)
#index <- 1:length(Vazao)
#data <- seq(ymd('2012-04-01'),ymd('2012-04-24'), by = '1 day')
#Qd <- data.frame(index,data,Vazao)

## identifica dias em que vazão é inferior ao limite estabelecido
## e cria nova coluna no daaframe
Qd$status <- Qd$Vazao < limite
tibble(Qd)

# A tibble: 15,920 × 4
   Cod_estacao Data       Vazao status
   <fct>       <date>     <dbl> <lgl> 
 1 60435000    1978-05-01    NA NA    
 2 60435000    1978-05-02    NA NA    
 3 60435000    1978-05-03    NA NA    
 4 60435000    1978-05-04    NA NA    
 5 60435000    1978-05-05    NA NA    
 6 60435000    1978-05-06    NA NA    
 7 60435000    1978-05-07    NA NA    
 8 60435000    1978-05-08    NA NA    
 9 60435000    1978-05-09    NA NA    
10 60435000    1978-05-10    NA NA    
# … with 15,910 more rows
…
Para deixar registrado os achados, vamos criar um
dataframe com os resultados relacionados aos períodos
secos. O nosso dataframe será denominado
dry_spell e conterá as seguintes colunas: ano,
data_inicio_dry, e comprimento.

## Construção de um novo dataframe com os dados de dry spell
data_inicio_dry <- Qd$Data[i_change[i_dry]] - l_dry
dry_spell <- data.frame(ano = year(Qd$Data[i_change[i_dry]]),
                        data_inicio_dry = Qd$Data[i_change[i_dry]],
                        comprimento = l_dry)
tibble(dry_spell)

# A tibble: 197 × 3
     ano data_inicio_dry comprimento
   <dbl> <date>                <dbl>
 1  1982 1982-09-13                4
 2  1982 1982-09-22                6
 3  1982 1982-10-28                1
 4  1984 1984-08-25               24
 5  1984 1984-09-07                6
 6  1984 1984-09-28               16
 7  1984 1984-10-14               14
 8  1984 1984-10-20                2
 9  1984 1984-11-28               28
10  1984 1984-12-03                3
# … with 187 more rows
…
